…
    ## Rows: 52179 Columns: 12
    ## ── Column specification ────────────────────────────────────────────────────────
    ## Delimiter: ","
    ## chr (9): uid, victim_last, victim_first, victim_race, victim_age, victim_sex...
    ## dbl (3): reported_date, lat, lon
    ## 
    ## ℹ Use `spec()` to retrieve the full column specification for this data.
    ## ℹ Specify the column types or set `show_col_types = FALSE` to quiet this message.

``` r
homicide_data
```

    ## # A tibble: 52,179 × 12
    ##    uid        reported_date victim_last  victim_first victim_race victim_age
    ##    <chr>              <dbl> <chr>        <chr>        <chr>       <chr>     
    ##  1 Alb-000001      20100504 GARCIA       JUAN         Hispanic    78        
    ##  2 Alb-000002      20100216 MONTOYA      CAMERON      Hispanic    17        
    ##  3 Alb-000003      20100601 SATTERFIELD  VIVIANA      White       15        
    ##  4 Alb-000004      20100101 MENDIOLA     CARLOS       Hispanic    32        
    ##  5 Alb-000005      20100102 MULA         VIVIAN       White       72        
    ##  6 Alb-000006      20100126 BOOK         GERALDINE    White       91        
    ##  7 Alb-000007      20100127 MALDONADO    DAVID        Hispanic    52        
    ##  8 Alb-000008      20100127 MALDONADO    CONNIE       Hispanic    52        
    ##  9 Alb-000009      20100130 MARTIN-LEYVA GUSTAVO      White       56        
    ## 10 Alb-000010      20100210 HERRERA      ISRAEL       Hispanic    43        
    ## # ℹ 52,169 more rows
    ## # ℹ 6 more variables: victim_sex <chr>, city <chr>, state <chr>, lat <dbl>,
    ## #   lon <dbl>, disposition <chr>
…
city_state_sum = homicide_data |>
  group_by(city_state) |>
  summarize(
    all_homicides = n(),
    unsolved_homicides = sum(disposition %in% c("Closed without arrest","Open/No arrest")))

city_state_sum
```

    ## # A tibble: 51 × 3
    ##    city_state      all_homicides unsolved_homicides
    ##    <chr>                   <int>              <int>
    ##  1 Albuquerque, NM           378                146
    ##  2 Atlanta, GA               973                373
    ##  3 Baltimore, MD            2827               1825
    ##  4 Baton Rouge, LA           424                196
    ##  5 Birmingham, AL            800                347
    ##  6 Boston, MA                614                310
    ##  7 Buffalo, NY               521                319
    ##  8 Charlotte, NC             687                206
    ##  9 Chicago, IL              5535               4073
    ## 10 Cincinnati, OH            694                309
    ## # ℹ 41 more rows
…
all_city_proptest
```

    ## # A tibble: 51 × 4
    ##    city_state      estimate conf.low conf.high
    ##    <chr>              <dbl>    <dbl>     <dbl>
    ##  1 Albuquerque, NM    0.386    0.337     0.438
    ##  2 Atlanta, GA        0.383    0.353     0.415
    ##  3 Baltimore, MD      0.646    0.628     0.663
    ##  4 Baton Rouge, LA    0.462    0.414     0.511
    ##  5 Birmingham, AL     0.434    0.399     0.469
    ##  6 Boston, MA         0.505    0.465     0.545
    ##  7 Buffalo, NY        0.612    0.569     0.654
    ##  8 Charlotte, NC      0.300    0.266     0.336
    ##  9 Chicago, IL        0.736    0.724     0.747
    ## 10 Cincinnati, OH     0.445    0.408     0.483
    ## # ℹ 41 more rows
…
tidy_p2_df
```

    ## # A tibble: 160 × 4
    ##    arm   subject_id  week  data
    ##    <chr> <chr>      <dbl> <dbl>
    ##  1 con   01             1  0.2 
    ##  2 con   01             2 -1.31
    ##  3 con   01             3  0.66
    ##  4 con   01             4  1.96
    ##  5 con   01             5  0.23
    ##  6 con   01             6  1.09
    ##  7 con   01             7  0.05
    ##  8 con   01             8  1.94
    ##  9 con   02             1  1.13
    ## 10 con   02             2 -0.88
    ## # ℹ 150 more rows
…
``` r
sim_results_df = 
  expand_grid(
    iter = 1:5000
  ) |> 
  mutate(
    estimate_df = map(1:5000, \(i) sim_mean_p(n, 0, sigma))
  ) |> 
  unnest(estimate_df)
sim_results_df
```

    ## # A tibble: 5,000 × 3
    ##     iter mu_hat p_value
    ##    <int>  <dbl>   <dbl>
    ##  1     1  0.412  0.629 
    ##  2     2  0.664  0.368 
    ##  3     3  0.551  0.534 
    ##  4     4  0.567  0.487 
    ##  5     5 -1.65   0.0599
    ##  6     6  1.19   0.229 
    ##  7     7  0.334  0.738 
    ##  8     8 -1.19   0.209 
    ##  9     9  0.122  0.887 
    ## 10    10  0.684  0.472 
    ## # ℹ 4,990 more rows
…
``` r
sim_allmu_results_df = 
  expand_grid(
    mu = c(1, 2, 3, 4, 5, 6),
    iter = 1:5000
    ) |> 
  mutate(
    estimate_df = map(mu, \(m) sim_mean_p(n, m, sigma))
  ) |> 
  unnest(estimate_df)

sim_allmu_results_df
```

    ## # A tibble: 30,000 × 4
    ##       mu  iter mu_hat p_value
    ##    <dbl> <int>  <dbl>   <dbl>
    ##  1     1     1  1.52   0.0865
    ##  2     1     2  2.11   0.0159
    ##  3     1     3  2.01   0.0183
    ##  4     1     4  0.165  0.839 
    ##  5     1     5  0.108  0.912 
    ##  6     1     6  1.56   0.0682
    ##  7     1     7  2.04   0.0252
    ##  8     1     8  2.40   0.0154
    ##  9     1     9  2.15   0.0154
    ## 10     1    10  0.500  0.634 
    ## # ℹ 29,990 more rows
…
